{
  "configVersion": 1,
  "timestamp": 1662817078649,
  "index": "/index.html",
  "assetGroups": [
    {
      "name": "app",
      "installMode": "prefetch",
      "updateMode": "prefetch",
      "cacheQueryOptions": {
        "ignoreVary": true
      },
      "urls": [
        "/4.3879f979c1a42de3d293.js",
        "/favicon.ico",
        "/index.html",
        "/main.e47a6240f17eda5548f1.js",
        "/manifest.webmanifest",
        "/polyfills.5851e6ac6a8655461f26.js",
        "/runtime.72861d9f3855eb1dbc91.js",
        "/scripts.c4c155fcd63d2bd4d4c6.js",
        "/styles.0703ca0952067835cada.css"
      ],
      "patterns": []
    },
    {
      "name": "assets",
      "installMode": "lazy",
      "updateMode": "prefetch",
      "cacheQueryOptions": {
        "ignoreVary": true
      },
      "urls": [
        "/assets/icons/icon-128x128.png",
        "/assets/icons/icon-144x144.png",
        "/assets/icons/icon-152x152.png",
        "/assets/icons/icon-192x192.png",
        "/assets/icons/icon-384x384.png",
        "/assets/icons/icon-512x512.png",
        "/assets/icons/icon-72x72.png",
        "/assets/icons/icon-96x96.png",
        "/assets/images/Digital ID_Zadanie_26112021.docx",
        "/assets/images/bake.jpg",
        "/assets/images/cake1.jpg",
        "/assets/images/cake2.jpeg",
        "/assets/images/cakez.jpg",
        "/assets/images/cakez2.jpg",
        "/assets/images/commin_soon.jpg",
        "/assets/images/cup.jpg",
        "/assets/images/cup2.jpg",
        "/assets/images/cupcake1.jpeg",
        "/assets/images/hero1.jpg",
        "/assets/images/hero2.jpg",
        "/assets/images/hero3.jpg",
        "/assets/images/jar.jpg",
        "/assets/images/jar2.jpg",
        "/assets/images/logo.png",
        "/assets/images/logo_.png",
        "/assets/images/petukhova.jpg",
        "/assets/images/placeholder.png",
        "/assets/pink_back.jpg",
        "/color.6441e63a57ccc5105bad.png",
        "/fontawesome-webfont.1e59d2330b4c6deb84b3.ttf",
        "/fontawesome-webfont.20fd1704ea223900efa9.woff2",
        "/fontawesome-webfont.8b43027f47b20503057d.eot",
        "/fontawesome-webfont.c1e38fd9e0e74ba58f7a.svg",
        "/fontawesome-webfont.f691f37e57f04c152e23.woff",
        "/hue.f8505bd4d6f3e3aa435b.png",
        "/pink_back.fd43e0072da7b2135f62.jpg",
        "/primeicons.3a0d4a58da62cf7c55bb.ttf",
        "/primeicons.c55d94a248721abbd220.svg",
        "/primeicons.dfbfef2de4bfb34e9722.eot",
        "/primeicons.e61f3495a7ecd3d571a4.woff"
      ],
      "patterns": []
    }
  ],
  "dataGroups": [],
  "hashTable": {
    "/4.3879f979c1a42de3d293.js": "fc67987c8785f43f5cf643788ad5441222020aba",
    "/assets/icons/icon-128x128.png": "dae3b6ed49bdaf4327b92531d4b5b4a5d30c7532",
    "/assets/icons/icon-144x144.png": "b0bd89982e08f9bd2b642928f5391915b74799a7",
    "/assets/icons/icon-152x152.png": "7479a9477815dfd9668d60f8b3b2fba709b91310",
    "/assets/icons/icon-192x192.png": "1abd80d431a237a853ce38147d8c63752f10933b",
    "/assets/icons/icon-384x384.png": "329749cd6393768d3131ed6304c136b1ca05f2fd",
    "/assets/icons/icon-512x512.png": "559d9c4318b45a1f2b10596bbb4c960fe521dbcc",
    "/assets/icons/icon-72x72.png": "c457e56089a36952cd67156f9996bc4ce54a5ed9",
    "/assets/icons/icon-96x96.png": "3914125a4b445bf111c5627875fc190f560daa41",
    "/assets/images/Digital ID_Zadanie_26112021.docx": "44f882d75317dff5aff376a51b3d1ad4082458e8",
    "/assets/images/bake.jpg": "fc73e16587132482a827a16a1466f8a0c3041f53",
    "/assets/images/cake1.jpg": "3a17453a761d9da730169de2cc932763dedeb053",
    "/assets/images/cake2.jpeg": "d24b86322b91c8785f85528621da3ee92166c0b1",
    "/assets/images/cakez.jpg": "a2e72e04516c08fc283043e2f1d0ab408feb3768",
    "/assets/images/cakez2.jpg": "c3d3ad8a870a59e5828cf92b5f93038b22f9be08",
    "/assets/images/commin_soon.jpg": "f282ed63487dd04c84c57a2328df5c72efa46f73",
    "/assets/images/cup.jpg": "989d9927357e6ab826431e348775b35f586d19fb",
    "/assets/images/cup2.jpg": "0ccddd14a58369047c4194529cb714e9960c66f1",
    "/assets/images/cupcake1.jpeg": "34209146985ea5d1e742c873e0fd2e60a4c96dae",
    "/assets/images/hero1.jpg": "f5fc2b3b57c177bd870acd012a7920ca6aa2f7e3",
    "/assets/images/hero2.jpg": "dd74a5a79c6af96869044c23fc30de41c33f963f",
    "/assets/images/hero3.jpg": "a962d8b2fd5924c1ab63073680e60215e5cbd4c8",
    "/assets/images/jar.jpg": "a584dabd1470fcf51c81ba73d29230ebba745494",
    "/assets/images/jar2.jpg": "de91fda6fe225c239205f1b6eac4b1ba0f172180",
    "/assets/images/logo.png": "2748fa92fc6f0d362031175c81f97bbb8e561b08",
    "/assets/images/logo_.png": "e0adf48b3734d8bcea311f501927be78be37b699",
    "/assets/images/petukhova.jpg": "5a3aa86889144038f044c066dfcdf68106de5d92",
    "/assets/images/placeholder.png": "3873690958bd4faf6c7df970f408830927cfbbee",
    "/assets/pink_back.jpg": "5977565f8972db88aee3ef2a8fd124443886bf1b",
    "/color.6441e63a57ccc5105bad.png": "ff4c4bcb2207891b292f544edb4da9d2df5d45cf",
    "/favicon.ico": "faae5ea96622a2e918fb62368845f13e460962b3",
    "/fontawesome-webfont.1e59d2330b4c6deb84b3.ttf": "13b1eab65a983c7a73bc7997c479d66943f7c6cb",
    "/fontawesome-webfont.20fd1704ea223900efa9.woff2": "d6f48cba7d076fb6f2fd6ba993a75b9dc1ecbf0c",
    "/fontawesome-webfont.8b43027f47b20503057d.eot": "d980c2ce873dc43af460d4d572d441304499f400",
    "/fontawesome-webfont.c1e38fd9e0e74ba58f7a.svg": "98a8aa5cf7d62c2eff5f07ede8d844b874ef06ed",
    "/fontawesome-webfont.f691f37e57f04c152e23.woff": "28b782240b3e76db824e12c02754a9731a167527",
    "/hue.f8505bd4d6f3e3aa435b.png": "f81ae627637a684614aa726e206c73ce099a01fd",
    "/index.html": "d35b17729017f1f566daf7d23ed5919cefbfb327",
    "/main.e47a6240f17eda5548f1.js": "6bb24496d305c1535b4f87f2663fcf988e1f7812",
    "/manifest.webmanifest": "605dfc89b1c053da2014a31b2816dfb196e3d3bc",
    "/pink_back.fd43e0072da7b2135f62.jpg": "5977565f8972db88aee3ef2a8fd124443886bf1b",
    "/polyfills.5851e6ac6a8655461f26.js": "587930b9b17d188b4b5cd9c4a2f5b0595f155fd7",
    "/primeicons.3a0d4a58da62cf7c55bb.ttf": "13889b5e1915891dd548d6b71c1cccddb469e13d",
    "/primeicons.c55d94a248721abbd220.svg": "4a2c5258656a8b900ddeabf5ac62aace724f5a0d",
    "/primeicons.dfbfef2de4bfb34e9722.eot": "6441e65a2458d0c813cd2bf6e8648c1f54327bdb",
    "/primeicons.e61f3495a7ecd3d571a4.woff": "d65c561bf2d7b6707c3912d8987273a9c715b7f2",
    "/runtime.72861d9f3855eb1dbc91.js": "4e7e3324c5086aec201fb5e2a0e4a9ca5f6fb3ca",
    "/scripts.c4c155fcd63d2bd4d4c6.js": "82ea9ce454f03f0990c4a4cf9077142b61759050",
    "/styles.0703ca0952067835cada.css": "81e074257127a78d229a698cbf7841c09cc131a8"
  },
  "navigationUrls": [
    {
      "positive": true,
      "regex": "^\\/.*$"
    },
    {
      "positive": false,
      "regex": "^\\/(?:.+\\/)?[^/]*\\.[^/]*$"
    },
    {
      "positive": false,
      "regex": "^\\/(?:.+\\/)?[^/]*__[^/]*$"
    },
    {
      "positive": false,
      "regex": "^\\/(?:.+\\/)?[^/]*__[^/]*\\/.*$"
    }
  ],
  "navigationRequestStrategy": "performance"
}